{
  "ambientDependencies": {
    "core-js": "registry:dt/core-js#0.0.0+20160317120654",
    "jasmine": "registry:dt/jasmine#2.2.0+20160412134438",
    "node": "registry:dt/node#4.0.0+20160509154515"
  },
  "dependencies": {
    "dragula": "registry:npm/dragula#3.6.8+20160410191048"
  }
}
